Tidy collostructions – Thomas Van Hoey
…
notconfess
notmust
62114

Hoop 2: uncount

must.tibble %>%
  pivot_longer(cols = c(must, notmust),
               names_to = "modal",
               values_to = "n") %>% # now it is really tidy
  uncount(n)  # uncount

# A tibble: 64,116 × 2
   verb    modal
   <chr>   <chr>
 1 confess must 
 2 confess must 
 3 confess must 
 4 confess must 
 5 confess must 
 6 confess must 
 7 confess must 
 8 confess must 
 9 confess must 
10 confess must 
# ℹ 64,106 more rows
…
I know there are some tidyverse-friendly functions like infer::chisq_test, but it seems to lack arguments like expected values (chisq.test()$exp). So this awkward hoop jumping is annoying but gets the job done (for now?).

From tidy to contingency

Anyway, while for most summary statistics a tidy format (see hoop 1) is the easiest to work with, I don’t think it’s very intuitive for the association measures paradigm.

So in this working example of must + V_inf_ construction what I did was get all the occurrences of all modal verbs + verbs in the infinitive from the BNC corpus. The second step I did was add a column with dplyr::case_when to identify if a modal verb was must or another modal verb.

Let’s look at this data shall we:

df.must

# A tibble: 64,116 × 3
   modal  verb      mod.type
   <chr>  <chr>     <chr>   
 1 can    find      OTHER   
 2 should stop      OTHER   
 3 should recognise OTHER   
 4 will   cost      OTHER   
 5 might  think     OTHER   
 6 can    sink      OTHER   
 7 can    change    OTHER   
 8 must   help      MUST    
 9 ll     help      OTHER   
10 ll     take      OTHER   
# ℹ 64,106 more rows

As you can see there are 64116 rows, and the table is just a count away form being tidy.

tidy.df.must <- df.must %>%
  count(mod.type, verb, sort = TRUE)
tidy.df.must

# A tibble: 2,522 × 3
   mod.type verb      n
   <chr>    <chr> <int>
 1 OTHER    get    3750
 2 OTHER    go     3421
 3 OTHER    see    2409
 4 OTHER    take   2056
 5 OTHER    like   1778
 6 OTHER    say    1647
 7 OTHER    come   1460
 8 OTHER    make   1383
 9 OTHER    give   1245
10 OTHER    put    1162
# ℹ 2,512 more rows

Much ‘prettier’, but what next? This is actually the mental step I struggled the most with, this dissonance between tidy and contingency. However, since we coded mod.type with a binary value: “OTHER” or “MUST”, it is actually trivial to dplyr::spread or dplyr::pivot_wider them to a “tidy contingency table”:

spread.tidy.df.must <- tidy.df.must %>%
  pivot_wider(values_from = n,
              names_from = mod.type) 
spread.tidy.df.must

# A tibble: 2,113 × 3
   verb  OTHER  MUST
   <chr> <int> <int>
 1 get    3750   102
 2 go     3421    94
 3 see    2409    14
 4 take   2056    63
 5 like   1778     3
 6 say    1647   105
 7 come   1460    41
 8 make   1383    62
 9 give   1245    22
10 put    1162    18
# ℹ 2,103 more rows
…
spread.tidy.df.must %>%
  mutate_if(is.numeric, ~ as.double(.x)) %>% # we'll want doubles instead of integers
  mutate_if(is.numeric, ~ replace_na(.x, 0)) %>% # NAs should be 0
  
  mutate(a = MUST,
       ac = sum(MUST),
       c = ac - a,
       ab = MUST + OTHER,
       b = ab - a,
       abcd = sum(MUST, OTHER),
       d = abcd - a - b -c,
       aExp = (a + b)*(a + c)/(a + b + c + d)) -> abcd.must
abcd.must

# A tibble: 2,113 × 11
   verb  OTHER  MUST     a    ac     c    ab     b  abcd     d  aExp
   <chr> <dbl> <dbl> <dbl> <dbl> <dbl> <dbl> <dbl> <dbl> <dbl> <dbl>
 1 get    3750   102   102  2001  1899  3852  3750 64116 58365 120. 
 2 go     3421    94    94  2001  1907  3515  3421 64116 58694 110. 
 3 see    2409    14    14  2001  1987  2423  2409 64116 59706  75.6
 4 take   2056    63    63  2001  1938  2119  2056 64116 60059  66.1
 5 like   1778     3     3  2001  1998  1781  1778 64116 60337  55.6
 6 say    1647   105   105  2001  1896  1752  1647 64116 60468  54.7
 7 come   1460    41    41  2001  1960  1501  1460 64116 60655  46.8
 8 make   1383    62    62  2001  1939  1445  1383 64116 60732  45.1
 9 give   1245    22    22  2001  1979  1267  1245 64116 60870  39.5
10 put    1162    18    18  2001  1983  1180  1162 64116 60953  36.8
# ℹ 2,103 more rows
…
